<svg width="20" height="20" viewBox="0 0 20 20" fill="none" xmlns="http://www.w3.org/2000/svg">
<path d="M2 10H18" stroke="#395DA2" stroke-width="3" stroke-linecap="round"/>
<path d="M10 18L10 2" stroke="#395DA2" stroke-width="3" stroke-linecap="round"/>
</svg>
